Exploratory Data Analysis
…
Creator: Marc Rovner

Q1: What type of shots are most efficient? Which shots are least efficient?

data16 <- sav

shoteff= data16 %>%
  group_by(action_type, shot_type) %>%
  summarise(pct=mean(shot_made_flag))
shoteff$shot_type=as.character(shoteff$shot_type)
shoteff$shot_type=gsub("3PT Field Goal", 3, shoteff$shot_type)
shoteff$shot_type=gsub("2PT Field Goal", 2, shoteff$shot_type)
shoteff

## # A tibble: 36 x 3
## # Groups:   action_type [?]
##    action_type                    shot_type   pct
##    <chr>                          <chr>     <dbl>
##  1 Alley Oop Dunk Shot            2         0.886
##  2 Alley Oop Layup shot           2         0.634
##  3 Cutting Dunk Shot              2         0.957
##  4 Cutting Finger Roll Layup Shot 2         0.873
##  5 Cutting Layup Shot             2         0.764
##  6 Driving Bank Hook Shot         2         0.675
##  7 Driving Bank Hook Shot         3         0    
##  8 Driving Bank shot              2         0.649
##  9 Driving Bank shot              3         0.5  
## 10 Driving Dunk Shot              2         0.874
## # ... with 26 more rows
…
teamsdef <- nba %>% group_by(opponent, year, action_type) %>% summarise(number = n())

# offnames <- unique(teamsoff$team_name)
# 
# defnames <- unique(teamsdef$team_name)
# 
# notinlevels <- offnames[which(!(offnames %in% defnames))]
# notinlevels

teamsoff <- teamsoff %>% spread(key = action_type, value = number, fill = 0)
teamsoff

## # A tibble: 90 x 38
## # Groups:   team_name, year [90]
##    team_name  year `Alley Oop Dunk~ `Alley Oop Layu~ `Cutting Dunk S~
##    <chr>     <dbl>            <dbl>            <dbl>            <dbl>
##  1 Atlanta ~    16               34               33               34
##  2 Atlanta ~    17               89               33               36
##  3 Atlanta ~    18               53               23               76
##  4 Boston C~    16                9               38               34
##  5 Boston C~    17               15               27               54
##  6 Boston C~    18               48               31               69
##  7 Brooklyn~    16               23               21               19
##  8 Brooklyn~    17                8               15               40
##  9 Brooklyn~    18               24                9              115
## 10 Charlott~    16               11               17               41
## # ... with 80 more rows, and 33 more variables: `Cutting Finger Roll Layup
## #   Shot 2PT Field Goal` <dbl>, `Cutting Layup Shot 2PT Field Goal` <dbl>,
## #   `Driving Bank Hook Shot 2PT Field Goal` <dbl>, `Driving Bank Hook Shot
## #   3PT Field Goal` <dbl>, `Driving Bank shot 2PT Field Goal` <dbl>,
## #   `Driving Bank shot 3PT Field Goal` <dbl>, `Driving Dunk Shot 2PT Field
## #   Goal` <dbl>, `Driving Finger Roll Layup Shot 2PT Field Goal` <dbl>,
## #   `Driving Floating Bank Jump Shot 2PT Field Goal` <dbl>, `Driving
## #   Floating Bank Jump Shot 3PT Field Goal` <dbl>, `Driving Floating Jump
## #   Shot 2PT Field Goal` <dbl>, `Driving Floating Jump Shot 3PT Field
…
teamsdef <- teamsdef %>% spread(key = action_type, value = number, fill = 0)
teamsdef

## # A tibble: 90 x 38
## # Groups:   opponent, year [90]
##    opponent  year `Alley Oop Dunk~ `Alley Oop Layu~ `Cutting Dunk S~
##    <chr>    <dbl>            <dbl>            <dbl>            <dbl>
##  1 Atlanta~    16               36               27               41
##  2 Atlanta~    17               29               21               47
##  3 Atlanta~    18               42               23               62
##  4 Boston ~    16               25               24               44
##  5 Boston ~    17               48               24               68
##  6 Boston ~    18               49               29               85
##  7 Brookly~    16               58               25               62
##  8 Brookly~    17               49               25               76
##  9 Brookly~    18               44               35               78
## 10 Charlot~    16               38               26               27
## # ... with 80 more rows, and 33 more variables: `Cutting Finger Roll Layup
## #   Shot 2PT Field Goal` <dbl>, `Cutting Layup Shot 2PT Field Goal` <dbl>,
## #   `Driving Bank Hook Shot 2PT Field Goal` <dbl>, `Driving Bank Hook Shot
## #   3PT Field Goal` <dbl>, `Driving Bank shot 2PT Field Goal` <dbl>,
## #   `Driving Bank shot 3PT Field Goal` <dbl>, `Driving Dunk Shot 2PT Field
## #   Goal` <dbl>, `Driving Finger Roll Layup Shot 2PT Field Goal` <dbl>,
## #   `Driving Floating Bank Jump Shot 2PT Field Goal` <dbl>, `Driving
## #   Floating Bank Jump Shot 3PT Field Goal` <dbl>, `Driving Floating Jump
## #   Shot 2PT Field Goal` <dbl>, `Driving Floating Jump Shot 3PT Field
…
